%YAML 1.1
%TAG !u! tag:unity3d.com,2011:
--- !u!1045 &1
EditorBuildSettings:
  m_ObjectHideFlags: 0
  serializedVersion: 2
  m_Scenes:
  - enabled: 1
    path: Assets/scenes/Welcome.unity
    guid: 9541523d9469093499984523cf2b6843
  - enabled: 1
    path: Assets/scenes/Scene1.unity
    guid: 216861478b56f964d83f93c0ab5efdf5
  - enabled: 1
    path: Assets/scenes/HowToPlay.unity
    guid: 3f091ebe2d074ff4c9e63d71e91713c3
  - enabled: 1
    path: Assets/scenes/Settings.unity
    guid: cc09ee76a6c31034cba4f80599f7007a
  - enabled: 1
    path: Assets/scenes/Scene2.unity
    guid: c860c74ed1e30c044ad038e1a3abc471
  - enabled: 1
    path: Assets/scenes/Leaderboard.unity
    guid: 9a1fd6887486ba54a8b02772d3b24bdc
  - enabled: 1
    path: Assets/scenes/Congrats.unity
    guid: c9bf8a30ae891874da2ede2e55026f6b
  - enabled: 1
    path: Assets/scenes/GameOver.unity
    guid: 422018851274d1d49a01e3a499aa32e4
